…
This function return energetic average aggregate:

- *D_acu* (day 06:00/22:00)
- *D* (day 06:00/20:00)
- *E* (Evening 20:00/22:00)
- *N* (Night 22:00/06:00)
- *Lden* (is the level of noise day-evening-night and is an indicator
  correlated with the global nuisance produced by noise over the overall
  24 hours)

``` r
data("exampleHourlyData")

LdenCalculator(dataframe = exampleHourlyData, variable = "leq", type = "daily")
#> # A tibble: 81 × 6
#>    date       D_acu     D     E     N  Lden
#>    <fct>      <dbl> <dbl> <dbl> <dbl> <dbl>
#>  1 2020-12-11  69.9  70.4  66    NA    NA  
#>  2 2020-12-12  69.4  69.7  65.6  56.1  68.9
#>  3 2020-12-13  69    69.3  65.4  54.9  68.4
#>  4 2020-12-14  69.6  70    64.9  56.5  69.1
#>  5 2020-12-15  69.7  70.1  65.1  56.5  69.2
#>  6 2020-12-16  70.3  70.7  65.4  56.9  69.7
#>  7 2020-12-17  70.1  70.5  65.9  57.4  69.7
#>  8 2020-12-18  69.6  69.8  66.7  57.2  69.3
#>  9 2020-12-19  69.1  69.4  66.1  56.6  68.9
#> 10 2020-12-20  69.2  69.5  66.5  54.7  68.7
#> # ℹ 71 more rows
```
…
